cds_user4/result (1)/dump.vcd
$date
	Thu Jun 25 15:29:36 2026
$end

$version
	Synopsys VCS version U-2023.03_Full64
$end

$timescale
	1s
$end

$comment Csum: 1 f750bbf6848b67df $end


$scope module $unit $end
$upscope $end


$scope module tbench_top $end
$var reg 1 ! clk $end
$var reg 1 " reset $end

$scope module i_intf $end
$var reg 1 # clk $end
$var reg 1 $ reset $end
$var reg 1 % valid $end
$var reg 4 & a [3:0] $end
$var reg 4 ' b [3:0] $end
$var reg 7 ( c [6:0] $end
$upscope $end


$scope module DUT $end
$var wire 1 ) clk $end
$var wire 1 * reset $end
$var wire 4 + a [3:0] $end
$var wire 4 , b [3:0] $end
$var wire 1 - valid $end
$var wire 7 . c [6:0] $end
$var reg 7 / tmp_c [6:0] $end
$upscope $end

$upscope $end

$enddefinitions $end

#0
$dumpvars
0!
1"
b0000000 (
b0000 '
b0000 &
b0000000 /
0#
1$
b0000 +
b0000 ,
b0000000 .
0)
1*
0-
0%
$end
#5
1!
1#
1)
0"
0$
0*
#10
0!
0#
0)
#15
1!
1#
1)
1%
1-
b1101 &
b1101 +
b0010 '
b0010 ,
#20
0!
0#
0)
#25
1!
1#
1)
b0001111 /
b0001111 .
b0001111 (
0%
0-
#30
0!
0#
0)
#35
1!
1#
1)
#40
0!
0#
0)
#45
1!
1#
1)
1%
1-
b0110 &
b0110 +
b0100 '
b0100 ,
#50
0!
0#
0)
#55
1!
1#
1)
b0001010 /
b0001010 .
b0001010 (
0%
0-
#60
0!
0#
0)
#65
1!
1#
1)
#70
0!
0#
0)
#75
1!
1#
1)
1%
1-
b1111 &
b1111 +
b1011 '
b1011 ,
#80
0!
0#
0)
#85
1!
1#
1)
b0011010 /
b0011010 .
b0011010 (
0%
0-
#90
0!
0#
0)
#95
1!
1#
1)
#100
0!
0#
0)
#105
1!
1#
1)
1%
1-
b0101 '
b0101 ,
#110
0!
0#
0)
#115
1!
1#
1)
b0010100 /
b0010100 .
b0010100 (
0%
0-
