cds_user4/characterization/Custom_Cell_Based_RTL2GDS/7_spice_simulation/muxdelay_chip.vcd
$comment
TOOL:	simvision(64)	22.09-s003
$end

$date
    May 08, 2026 20:44:36
$end

$timescale
    1ps
$end




$scope module muxdelay $end
$var wire 1 ! A $end
$var wire 1 " B $end
$var wire 1 # C $end
$var wire 1 $ S $end
$var wire 1 % clk $end
$var wire 1 & rst $end
$upscope $end



$enddefinitions $end
#0
$dumpvars
0!
0"
0#
0$
0%
1&
$end
#10000
1%
#20000
0%
1"
#30000
1%
#40000
0%
0"
1!
#50000
1%
#60000
0%
1"
#70000
1%
#80000
0%
0"
1$
0!
#90000
1%
#100000
0%
1"
#110000
1%
#120000
0%
0"
1!
#130000
1%
#140000
0%
1"
#150000
1%
#160000
0%
0"
0$
0!
0&
#170000
1%
#180000
0%
1"
#190000
1%
#200000
0%
0"
1!
#210000
1%
#220000
0%
1"
#230000
1%
#240000
0%
0!
1$
0"
#250000
1%
#260000
0%
1"
#270000
1%
#280000
0%
0"
1!
#290000
1%
#300000
0%
1"
#310000
1%
#320000
0%
0"
0!
0$
1#
#330000
1%
#340000
0%
1"
#350000
1%
#360000
0%
0"
1!
#370000
1%
#380000
0%
1"
#390000
1%
#400000
0%
0!
0"
1$
#410000
1%
#420000
0%
1"
#430000
1%
#440000
0%
0"
1!
#450000
1%
#460000
0%
1"
#470000
1%
#480000
0%
0$
0"
0!
#490000
1%
#500000
0%
1"
#510000
1%
#520000
0%
1!
0"
#530000
1%
#540000
0%
1"
#550000
1%
#560000
0%
0"
0!
1$
#570000
1%
#580000
0%
1"
#590000
1%
#600000
0%
0"
1!
#610000
1%
#620000
0%
1"
#630000
1%
#640000
0%
0$
0#
0"
0!
