cds_user4/5_postlayout_SDF_simulation/macchip_chip.vcd
$comment
TOOL:	simvision(64)	24.09-s005
$end

$date
    Jun 22, 2026 20:19:31
$end

$timescale
    1ps
$end


$scope module mac_4x4_wrapper_chip $end
$var wire 1 ! a0 $end
$var wire 1 " a1 $end
$var wire 1 # a2 $end
$var wire 1 $ a3 $end
$var wire 1 % b0 $end
$var wire 1 & b1 $end
$var wire 1 ' b2 $end
$var wire 1 ( b3 $end
$var wire 1 ) clk $end
$var wire 1 * enable $end
$var wire 1 + rst $end
$upscope $end

$enddefinitions $end
#0
$dumpvars
0!
0"
0#
0$
0%
0&
0'
0(
0)
0*
1+
$end
#100000
1)
#200000
0)
#300000
1)
#400000
0)
#500000
1)
#600000
0)
#700000
1)
#800000
0)
#900000
1)
0+
#1000000
0)
#1100000
1)
#1200000
0)
#1300000
1)
#1400000
0)
#1500000
1)
#1600000
0)
#1700000
1)
#1800000
0)
#1900000
1)
#2000000
0)
1*
#2100000
1)
#2200000
0)
1"
1!
1&
#2300000
1)
#2400000
0)
0&
0"
1%
0!
1#
1'
#2500000
1)
#2600000
0)
0'
1$
1"
1&
#2700000
1)
#2800000
0)
0"
1(
1'
0%
#2900000
1)
#3000000
0)
1%
1"
0$
1!
#3100000
1)
#3200000
0)
0!
0(
0&
0*
0"
0%
0#
0'
